[1] seqmat:
Mat Object: 1 MPI processes
  type: seqbaij
row 0: (0, 2.)  (1, 2.)  (2, -1.)  (3, -1.) 
row 1: (0, 2.)  (1, 2.)  (2, -1.)  (3, -1.) 
row 2: (2, 2.)  (3, 2.)  (4, -1.)  (5, -1.) 
row 3: (2, 2.)  (3, 2.)  (4, -1.)  (5, -1.) 
row 4: (4, 2.)  (5, 2.)  (6, -1.)  (7, -1.) 
row 5: (4, 2.)  (5, 2.)  (6, -1.)  (7, -1.) 
row 6: (6, 2.)  (7, 2.)  (8, -1.)  (9, -1.) 
row 7: (6, 2.)  (7, 2.)  (8, -1.)  (9, -1.) 
row 8: (8, 2.)  (9, 2.) 
row 9: (8, 2.)  (9, 2.) 
row 10:
row 11:
Mat Object: 3 MPI processes
  type: mpibaij
row 0: (0, 2.)  (1, 2.)  (2, -1.)  (3, -1.) 
row 1: (0, 2.)  (1, 2.)  (2, -1.)  (3, -1.) 
row 2: (2, 2.)  (3, 2.)  (4, -1.)  (5, -1.) 
row 3: (2, 2.)  (3, 2.)  (4, -1.)  (5, -1.) 
row 4: (4, 2.)  (5, 2.)  (6, -1.)  (7, -1.) 
row 5: (4, 2.)  (5, 2.)  (6, -1.)  (7, -1.) 
row 6: (6, 2.)  (7, 2.)  (8, -1.)  (9, -1.) 
row 7: (6, 2.)  (7, 2.)  (8, -1.)  (9, -1.) 
row 8: (8, 2.)  (9, 2.) 
row 9: (8, 2.)  (9, 2.) 
row 10: (0, 2.)  (1, 2.)  (2, -1.)  (3, -1.) 
row 11: (0, 2.)  (1, 2.)  (2, -1.)  (3, -1.) 
row 12: (2, 2.)  (3, 2.)  (4, -1.)  (5, -1.) 
row 13: (2, 2.)  (3, 2.)  (4, -1.)  (5, -1.) 
row 14: (4, 2.)  (5, 2.)  (6, -1.)  (7, -1.) 
row 15: (4, 2.)  (5, 2.)  (6, -1.)  (7, -1.) 
row 16: (6, 2.)  (7, 2.)  (8, -1.)  (9, -1.) 
row 17: (6, 2.)  (7, 2.)  (8, -1.)  (9, -1.) 
row 18: (8, 2.)  (9, 2.) 
row 19: (8, 2.)  (9, 2.) 
row 20:
row 21:
row 22: (0, 2.)  (1, 2.)  (2, -1.)  (3, -1.) 
row 23: (0, 2.)  (1, 2.)  (2, -1.)  (3, -1.) 
row 24: (2, 2.)  (3, 2.)  (4, -1.)  (5, -1.) 
row 25: (2, 2.)  (3, 2.)  (4, -1.)  (5, -1.) 
row 26: (4, 2.)  (5, 2.)  (6, -1.)  (7, -1.) 
row 27: (4, 2.)  (5, 2.)  (6, -1.)  (7, -1.) 
row 28: (6, 2.)  (7, 2.)  (8, -1.)  (9, -1.) 
row 29: (6, 2.)  (7, 2.)  (8, -1.)  (9, -1.) 
row 30: (8, 2.)  (9, 2.) 
row 31: (8, 2.)  (9, 2.) 
row 32:
row 33:
row 34:
row 35:
